{u'targets': [{u'flag_id': u'1111763094107402238512112514105625330229',
               u'hostname': u'team216',
               u'port': 20004,
               u'team_name': u'CDCC Capstone'},
              {u'flag_id': u'1111333748117608446975204337827337715123',
               u'hostname': u'team217',
               u'port': 20004,
               u'team_name': u'NULL'},
              {u'flag_id': u'1111976808886703116084632510315339011880',
               u'hostname': u'team214',
               u'port': 20004,
               u'team_name': u'2O2L2H'},
              {u'flag_id': u'1111406750519153451956610373111548281427',
               u'hostname': u'team215',
               u'port': 20004,
               u'team_name': u'Weird@First'},
              {u'flag_id': u'1111210108832736629000208428170736955715',
               u'hostname': u'team212',
               u'port': 20004,
               u'team_name': u'KLTM'},
              {u'flag_id': u'1111864244254401440202624698284443750859',
               u'hostname': u'team213',
               u'port': 20004,
               u'team_name': u'mhack'},
              {u'flag_id': u'1111386856767121464904598741248619003562',
               u'hostname': u'team210',
               u'port': 20004,
               u'team_name': u'badstreff'},
              {u'flag_id': u'1111346229495184526773709782618295540749',
               u'hostname': u'team211',
               u'port': 20004,
               u'team_name': u'innerFoo'},
              {u'flag_id': u'1111416259196128828131548058891080283905',
               u'hostname': u'team165',
               u'port': 20004,
               u'team_name': u'BytesForEveryone'},
              {u'flag_id': u'1111359985832411444377064413596150496416',
               u'hostname': u'team264',
               u'port': 20004,
               u'team_name': u'Skynet'},
              {u'flag_id': u'1111538546888141378321326698872460972214',
               u'hostname': u'team265',
               u'port': 20004,
               u'team_name': u'Mudd Gulch'},
              {u'flag_id': u'1111394737229569769733714315767818295591',
               u'hostname': u'team218',
               u'port': 20004,
               u'team_name': u'HackingForSoju'},
              {u'flag_id': u'1111206699023095527581358456017378281831',
               u'hostname': u'team219',
               u'port': 20004,
               u'team_name': u'unlimit'},
              {u'flag_id': u'1111757276285016939609501595829513412284',
               u'hostname': u'team133',
               u'port': 20004,
               u'team_name': u'as3richa'},
              {u'flag_id': u'1111093661845419266552854002553556523028',
               u'hostname': u'team132',
               u'port': 20004,
               u'team_name': u'Acme Pharmaceutical'},
              {u'flag_id': u'1111682473662477850618252086467022204522',
               u'hostname': u'team131',
               u'port': 20004,
               u'team_name': u'txst-ISO'},
              {u'flag_id': u'1111738209091558717250573334536718900252',
               u'hostname': u'team130',
               u'port': 20004,
               u'team_name': u'Espacio'},
              {u'flag_id': u'1111851507482186208294207080400842755329',
               u'hostname': u'team137',
               u'port': 20004,
               u'team_name': u'LSE'},
              {u'flag_id': u'1111084038817919070748772564272817272241',
               u'hostname': u'team136',
               u'port': 20004,
               u'team_name': u'justatestteam'},
              {u'flag_id': u'1111586392357489095617078907507117168816',
               u'hostname': u'team135',
               u'port': 20004,
               u'team_name': u'noraneco'},
              {u'flag_id': u'1111606048592558729142864309952529434344',
               u'hostname': u'team134',
               u'port': 20004,
               u'team_name': u'HoT'},
              {u'flag_id': u'1111593981298102519027293793742053446545',
               u'hostname': u'team139',
               u'port': 20004,
               u'team_name': u'Renegades'},
              {u'flag_id': u'1111264611747877386965170315944331608308',
               u'hostname': u'team138',
               u'port': 20004,
               u'team_name': u'WCSC'},
              {u'flag_id': u'1111752488703296643902343375308233266422',
               u'hostname': u'team166',
               u'port': 20004,
               u'team_name': u'p4'},
              {u'flag_id': u'1111891924379968141294246508954101393896',
               u'hostname': u'team24',
               u'port': 20004,
               u'team_name': u'onlyME'},
              {u'flag_id': u'1111299353487579386853093119739119612709',
               u'hostname': u'team25',
               u'port': 20004,
               u'team_name': u'KSU Cyber Defense Team'},
              {u'flag_id': u'1111326750315664289211032580673445319365',
               u'hostname': u'team26',
               u'port': 20004,
               u'team_name': u'Pwnies'},
              {u'flag_id': u'1111755360820299846523894095018652404331',
               u'hostname': u'team27',
               u'port': 20004,
               u'team_name': u'CCQK'},
              {u'flag_id': u'1111433943407266151646526494781278206502',
               u'hostname': u'team20',
               u'port': 20004,
               u'team_name': u'PackdeSys'},
              {u'flag_id': u'1111744773173299459198827344702947235370',
               u'hostname': u'team21',
               u'port': 20004,
               u'team_name': u'k3y'},
              {u'flag_id': u'1111023298712091636561704084843135049450',
               u'hostname': u'team22',
               u'port': 20004,
               u'team_name': u'Tower of Hanoi'},
              {u'flag_id': u'1111209340757638316945634780855269242394',
               u'hostname': u'team23',
               u'port': 20004,
               u'team_name': u'Antichat'},
              {u'flag_id': u'1111106739336290998032558364505535223158',
               u'hostname': u'team160',
               u'port': 20004,
               u'team_name': u'H3X0R'},
              {u'flag_id': u'1111456409032523706173296790446346551774',
               u'hostname': u'team28',
               u'port': 20004,
               u'team_name': u''},
              {u'flag_id': u'1111007383317528496853955043853027078670',
               u'hostname': u'team29',
               u'port': 20004,
               u'team_name': u'CC'},
              {u'flag_id': u'1111784691311841718525975770315875314460',
               u'hostname': u'team161',
               u'port': 20004,
               u'team_name': u'Boyd306'},
              {u'flag_id': u'1111676617976200119486226550163988015506',
               u'hostname': u'team289',
               u'port': 20004,
               u'team_name': u'Josh Nelbach'},
              {u'flag_id': u'1111685224778371459069570157897315174588',
               u'hostname': u'team288',
               u'port': 20004,
               u'team_name': u'qxxtg bmfls hzbqb'},
              {u'flag_id': u'1111783838905006630043829465608890508230',
               u'hostname': u'team4',
               u'port': 20004,
               u'team_name': u'Cyber@UCI'},
              {u'flag_id': u'1111711355664546560734678728951142469287',
               u'hostname': u'team281',
               u'port': 20004,
               u'team_name': u'cokomelayran'},
              {u'flag_id': u'1111845905031026585489558573529655845268',
               u'hostname': u'team8',
               u'port': 20004,
               u'team_name': u'b4ckDo0r3d'},
              {u'flag_id': u'1111588567843984967985620915684403283930',
               u'hostname': u'team283',
               u'port': 20004,
               u'team_name': u'lgeffect'},
              {u'flag_id': u'1111122975009233043612596948347187150446',
               u'hostname': u'team163',
               u'port': 20004,
               u'team_name': u'Llo Unlimited'},
              {u'flag_id': u'1111453133760286655048652839538012390894',
               u'hostname': u'team285',
               u'port': 20004,
               u'team_name': u'SUSlo.PAS'},
              {u'flag_id': u'1111157736822754454819585687285719939302',
               u'hostname': u'team284',
               u'port': 20004,
               u'team_name': u'autobots'},
              {u'flag_id': u'1111693541431259906526253513319802394912',
               u'hostname': u'team287',
               u'port': 20004,
               u'team_name': u'n4rv4l0'},
              {u'flag_id': u'1111649345369636198996361572825975396478',
               u'hostname': u'team286',
               u'port': 20004,
               u'team_name': u'GNU-e-Ducks'},
              {u'flag_id': u'1111126192077355609268684933935350398511',
               u'hostname': u'team119',
               u'port': 20004,
               u'team_name': u'fuwev'},
              {u'flag_id': u'1111262011967149805990876667819971561871',
               u'hostname': u'team271',
               u'port': 20004,
               u'team_name': u'InSecurity'},
              {u'flag_id': u'1111475541236122657706297906540146742550',
               u'hostname': u'team258',
               u'port': 20004,
               u'team_name': u'M.I.S.T'},
              {u'flag_id': u'1111920885252748893914562053565878343469',
               u'hostname': u'team120',
               u'port': 20004,
               u'team_name': u'Test'},
              {u'flag_id': u'1111993365585093274620308374980416962918',
               u'hostname': u'team121',
               u'port': 20004,
               u'team_name': u'RIP ROP Anonymous'},
              {u'flag_id': u'1111407441230151689406319655113569624926',
               u'hostname': u'team122',
               u'port': 20004,
               u'team_name': u'sure'},
              {u'flag_id': u'1111099572901561171410961489132588668555',
               u'hostname': u'team123',
               u'port': 20004,
               u'team_name': u'r00t-m0b'},
              {u'flag_id': u'1111442237200363194869872195146194257978',
               u'hostname': u'team124',
               u'port': 20004,
               u'team_name': u'ayyy'},
              {u'flag_id': u'1111801427731756368575560110353476971538',
               u'hostname': u'team125',
               u'port': 20004,
               u'team_name': u'Shady Hats'},
              {u'flag_id': u'1111278759309066999963259745494444856826',
               u'hostname': u'team126',
               u'port': 20004,
               u'team_name': u'ExtremeKickers'},
              {u'flag_id': u'1111677563157942063598387873772184236817',
               u'hostname': u'team127',
               u'port': 20004,
               u'team_name': u'X-Men'},
              {u'flag_id': u'1111722231249998818349309304627741721283',
               u'hostname': u'team128',
               u'port': 20004,
               u'team_name': u'c00kies@venice'},
              {u'flag_id': u'1111335231371613932414663058476295714095',
               u'hostname': u'team129',
               u'port': 20004,
               u'team_name': u'Siber Defense Club'},
              {u'flag_id': u'1111196416276188963853269455834036410025',
               u'hostname': u'team269',
               u'port': 20004,
               u'team_name': u'CyberTeam6'},
              {u'flag_id': u'1111613500938604999477972607093887367798',
               u'hostname': u'team268',
               u'port': 20004,
               u'team_name': u'OpenToAll'},
              {u'flag_id': u'1111759152036898017052393354337746253162',
               u'hostname': u'team167',
               u'port': 20004,
               u'team_name': u'Hackademics'},
              {u'flag_id': u'1111762795395646370443644547446078183417',
               u'hostname': u'team118',
               u'port': 20004,
               u'team_name': u'B33r'},
              {u'flag_id': u'1111864501538995719103445376072335468753',
               u'hostname': u'team59',
               u'port': 20004,
               u'team_name': u'Never Stop Exploiting'},
              {u'flag_id': u'1111113255772929097566161507005588583860',
               u'hostname': u'team58',
               u'port': 20004,
               u'team_name': u'anesthesia'},
              {u'flag_id': u'1111977991818405635534524245744579977535',
               u'hostname': u'team55',
               u'port': 20004,
               u'team_name': u'Sheep'},
              {u'flag_id': u'1111007559963242514054449731800608323005',
               u'hostname': u'team54',
               u'port': 20004,
               u'team_name': u'sw1ssfr13nds'},
              {u'flag_id': u'1111968658290099036142924509823169743893',
               u'hostname': u'team57',
               u'port': 20004,
               u'team_name': u'theskullcrusher'},
              {u'flag_id': u'1111019046353181647221230864651958800962',
               u'hostname': u'team56',
               u'port': 20004,
               u'team_name': u'SecDaemons'},
              {u'flag_id': u'1111825016009419852927748924470749168963',
               u'hostname': u'team51',
               u'port': 20004,
               u'team_name': u'NothingMajor'},
              {u'flag_id': u'1111471854879330973201052925005010557282',
               u'hostname': u'team50',
               u'port': 20004,
               u'team_name': u'0xciph3r'},
              {u'flag_id': u'1111061907686622995061790364618700097794',
               u'hostname': u'team53',
               u'port': 20004,
               u'team_name': u'KaisHack GoN'},
              {u'flag_id': u'1111266572962835487967857458857614069855',
               u'hostname': u'team52',
               u'port': 20004,
               u'team_name': u'STT'},
              {u'flag_id': u'1111549867135817019332810942054398416958',
               u'hostname': u'team259',
               u'port': 20004,
               u'team_name': u'pr0wl'},
              {u'flag_id': u'1111481716296112121944337403345578663202',
               u'hostname': u'team312',
               u'port': 20004,
               u'team_name': u'bohboh'},
              {u'flag_id': u'1111896025121984021961315376503515488917',
               u'hostname': u'team298',
               u'port': 20004,
               u'team_name': u'peakchaos'},
              {u'flag_id': u'1111254796874689757970673485890288204170',
               u'hostname': u'team299',
               u'port': 20004,
               u'team_name': u'im in ur cloud stealing ur nudez'},
              {u'flag_id': u'1111655062420772963208137265631963170713',
               u'hostname': u'team296',
               u'port': 20004,
               u'team_name': u'yukiarashi'},
              {u'flag_id': u'1111240166469040760092153993151474751701',
               u'hostname': u'team297',
               u'port': 20004,
               u'team_name': u'9soc'},
              {u'flag_id': u'1111253581361312680944470521271105597869',
               u'hostname': u'team294',
               u'port': 20004,
               u'team_name': u'BAH-Humbug'},
              {u'flag_id': u'1111324194915243976232428621207635442408',
               u'hostname': u'team295',
               u'port': 20004,
               u'team_name': u'tomaHAWkss'},
              {u'flag_id': u'1111621815449355493200906440802866607345',
               u'hostname': u'team292',
               u'port': 20004,
               u'team_name': u'L-Team'},
              {u'flag_id': u'1111491804810632175367839803550910429379',
               u'hostname': u'team293',
               u'port': 20004,
               u'team_name': u'ITCMUDTU'},
              {u'flag_id': u'1111424908471393148440862514205409668347',
               u'hostname': u'team290',
               u'port': 20004,
               u'team_name': u'R3d Cr3sc3nt'},
              {u'flag_id': u'1111153201621727850736261996939696290170',
               u'hostname': u'team291',
               u'port': 20004,
               u'team_name': u'BabyPhD'},
              {u'flag_id': u'1111565241204986129605176240432912546997',
               u'hostname': u'team164',
               u'port': 20004,
               u'team_name': u'Perepodvysomtrit'},
              {u'flag_id': u'1111890977097412752939127144162169867876',
               u'hostname': u'team201',
               u'port': 20004,
               u'team_name': u'We_0wn_Y0u'},
              {u'flag_id': u'1111021266615124937304894367547031856075',
               u'hostname': u'team199',
               u'port': 20004,
               u'team_name': u'irerynedala'},
              {u'flag_id': u'1111862602573651903112725514086624471936',
               u'hostname': u'team179',
               u'port': 20004,
               u'team_name': u'NASA Rejects'},
              {u'flag_id': u'1111563622268147521727993143993070999331',
               u'hostname': u'team200',
               u'port': 20004,
               u'team_name': u'Dragon Sector'},
              {u'flag_id': u'1111057922536182086944138566664595147310',
               u'hostname': u'team195',
               u'port': 20004,
               u'team_name': u'daruma'},
              {u'flag_id': u'1111272095281015767859343126441574807831',
               u'hostname': u'team194',
               u'port': 20004,
               u'team_name': u'badfirmware'},
              {u'flag_id': u'1111583838315162554637825313092139653836',
               u'hostname': u'team197',
               u'port': 20004,
               u'team_name': u'wtf'},
              {u'flag_id': u'1111232821670273343049592678269211406488',
               u'hostname': u'team178',
               u'port': 20004,
               u'team_name': u'FoXXes'},
              {u'flag_id': u'1111449101322933349840956560357481340739',
               u'hostname': u'team191',
               u'port': 20004,
               u'team_name': u'Tasteless'},
              {u'flag_id': u'1111481437427319806327426608463208461361',
               u'hostname': u'team190',
               u'port': 20004,
               u'team_name': u'SaiberSekuriti'},
              {u'flag_id': u'1111470531577012535782838198548227963195',
               u'hostname': u'team193',
               u'port': 20004,
               u'team_name': u'Wes and the Cyber Bois'},
              {u'flag_id': u'1111388911413846488393298986326329877048',
               u'hostname': u'team192',
               u'port': 20004,
               u'team_name': u'Cheddar_Horsemen'},
              {u'flag_id': u'1111092995057617114380405753055033044413',
               u'hostname': u'team115',
               u'port': 20004,
               u'team_name': u'3cst4sy'},
              {u'flag_id': u'1111298738524157708890898068632914188871',
               u'hostname': u'team114',
               u'port': 20004,
               u'team_name': u'NYUSEC'},
              {u'flag_id': u'1111441597980751606031146584570467481364',
               u'hostname': u'team88',
               u'port': 20004,
               u'team_name': u'MrMugiwara'},
              {u'flag_id': u'1111761632109697589135319456330717683634',
               u'hostname': u'team89',
               u'port': 20004,
               u'team_name': u'HackThisSite'},
              {u'flag_id': u'1111287781930737357593563010022875210226',
               u'hostname': u'team111',
               u'port': 20004,
               u'team_name': u'3v01v3'},
              {u'flag_id': u'1111829388510461975678850225957438060520',
               u'hostname': u'team110',
               u'port': 20004,
               u'team_name': u'ghifkers'},
              {u'flag_id': u'1111357112414863974438999809466328405954',
               u'hostname': u'team113',
               u'port': 20004,
               u'team_name': u'lemonh2o'},
              {u'flag_id': u'1111410754607245438515411096720698685412',
               u'hostname': u'team112',
               u'port': 20004,
               u'team_name': u'HacknamStyle'},
              {u'flag_id': u'1111895012320879612969979226999678285755',
               u'hostname': u'team82',
               u'port': 20004,
               u'team_name': u'Much sudo About Nothing'},
              {u'flag_id': u'1111814261723178008870532740803207762898',
               u'hostname': u'team83',
               u'port': 20004,
               u'team_name': u'Itemize'},
              {u'flag_id': u'1111717345131970525811913423796339684083',
               u'hostname': u'team80',
               u'port': 20004,
               u'team_name': u'banana'},
              {u'flag_id': u'1111097735771673195244324949392936454925',
               u'hostname': u'team81',
               u'port': 20004,
               u'team_name': u'Lab RATs'},
              {u'flag_id': u'1111898987672838666397930708769200412749',
               u'hostname': u'team86',
               u'port': 20004,
               u'team_name': u'SaferSexWeek2017'},
              {u'flag_id': u'1111160494250811484720760860999295169126',
               u'hostname': u'team87',
               u'port': 20004,
               u'team_name': u'AAA'},
              {u'flag_id': u'1111868394579170474480317280287398703251',
               u'hostname': u'team84',
               u'port': 20004,
               u'team_name': u'anaconda'},
              {u'flag_id': u'1111925287234421540198971628366512503772',
               u'hostname': u'team85',
               u'port': 20004,
               u'team_name': u'CnC'},
              {u'flag_id': u'1111790072963553144546759501865812727802',
               u'hostname': u'team251',
               u'port': 20004,
               u'team_name': u'grnmteam'},
              {u'flag_id': u'1111791426614850330046664289372666120634',
               u'hostname': u'team304',
               u'port': 20004,
               u'team_name': u'ganymede'},
              {u'flag_id': u'1111480539895620925388718462220258754230',
               u'hostname': u'team198',
               u'port': 20004,
               u'team_name': u'test999'},
              {u'flag_id': u'1111326654085943112473793636473054241616',
               u'hostname': u'team256',
               u'port': 20004,
               u'team_name': u'TechSec'},
              {u'flag_id': u'1111378786393276360926047364424798518149',
               u'hostname': u'team206',
               u'port': 20004,
               u'team_name': u'JohnDoe'},
              {u'flag_id': u'1111096739460706426967787298393731499863',
               u'hostname': u'team226',
               u'port': 20004,
               u'team_name': u'random'},
              {u'flag_id': u'1111641726409565149477107807898561847936',
               u'hostname': u'team257',
               u'port': 20004,
               u'team_name': u'Olin College'},
              {u'flag_id': u'1111653366014832983688773505216579321631',
               u'hostname': u'team3',
               u'port': 20004,
               u'team_name': u'Cheddar Horsemen'},
              {u'flag_id': u'1111592007248043975065955740404074169412',
               u'hostname': u'team177',
               u'port': 20004,
               u'team_name': u'cyber@ucr'},
              {u'flag_id': u'1111782435823272493429902788980387361990',
               u'hostname': u'team254',
               u'port': 20004,
               u'team_name': u'toblerone'},
              {u'flag_id': u'1111138639924876629871513421200837759430',
               u'hostname': u'team7',
               u'port': 20004,
               u'team_name': u'nekminnit'},
              {u'flag_id': u'1111576524569156505837270399792666979504',
               u'hostname': u'team247',
               u'port': 20004,
               u'team_name': u'ZergR00sh'},
              {u'flag_id': u'1111805687939164033168479968201417044815',
               u'hostname': u'team273',
               u'port': 20004,
               u'team_name': u'Peredpodvysmotrit'},
              {u'flag_id': u'1111735117550636156561696937831672346766',
               u'hostname': u'team255',
               u'port': 20004,
               u'team_name': u'keypwn'},
              {u'flag_id': u'1111597816841782166807467209414787789428',
               u'hostname': u'team308',
               u'port': 20004,
               u'team_name': u'roguecookies'},
              {u'flag_id': u'1111835756916638866865669953916996638273',
               u'hostname': u'team309',
               u'port': 20004,
               u'team_name': u'SecurityInfo'},
              {u'flag_id': u'1111257124061209305521353007486809880073',
               u'hostname': u'team300',
               u'port': 20004,
               u'team_name': u'ThienLyDocHanh'},
              {u'flag_id': u'1111030282882545255017897494090406280016',
               u'hostname': u'team301',
               u'port': 20004,
               u'team_name': u'FrozenBeer'},
              {u'flag_id': u'1111061326799824978255627786891796685254',
               u'hostname': u'team302',
               u'port': 20004,
               u'team_name': u'Deepsea'},
              {u'flag_id': u'1111033749427385359790144924030736371907',
               u'hostname': u'team303',
               u'port': 20004,
               u'team_name': u'K17'},
              {u'flag_id': u'1111045887908355445150044827216989053394',
               u'hostname': u'team305',
               u'port': 20004,
               u'team_name': u'keva'},
              {u'flag_id': u'1111657301299284866906604525023225542480',
               u'hostname': u'team306',
               u'port': 20004,
               u'team_name': u'SBHSPRC'},
              {u'flag_id': u'1111066770021870459125399633414425543408',
               u'hostname': u'team307',
               u'port': 20004,
               u'team_name': u'UofTHackers'},
              {u'flag_id': u'1111693788756757111751537762145795198943',
               u'hostname': u'team245',
               u'port': 20004,
               u'team_name': u'SiBears'},
              {u'flag_id': u'1111595876244020691024283859790552959259',
               u'hostname': u'team244',
               u'port': 20004,
               u'team_name': u'La team roquette!'},
              {u'flag_id': u'1111721004761333357813222304452093236385',
               u'hostname': u'team108',
               u'port': 20004,
               u'team_name': u'shakalCTF'},
              {u'flag_id': u'1111565104731566238974173494992583953906',
               u'hostname': u'team109',
               u'port': 20004,
               u'team_name': u'noneasdtest'},
              {u'flag_id': u'1111728631658544395919745093247655672571',
               u'hostname': u'team241',
               u'port': 20004,
               u'team_name': u'idontknow'},
              {u'flag_id': u'1111162091454875764074407979583969466137',
               u'hostname': u'team240',
               u'port': 20004,
               u'team_name': u'Burlingpwn open'},
              {u'flag_id': u'1111608635128826480059440980380680251727',
               u'hostname': u'team243',
               u'port': 20004,
               u'team_name': u'Magic Squirrels'},
              {u'flag_id': u'1111268479542851492533405492469917830847',
               u'hostname': u'team242',
               u'port': 20004,
               u'team_name': u'Harekaze'},
              {u'flag_id': u'1111189877559130538019736175224254223189',
               u'hostname': u'team102',
               u'port': 20004,
               u'team_name': u'Destructive Voice'},
              {u'flag_id': u'1111762631509115676751279415792040063547',
               u'hostname': u'team103',
               u'port': 20004,
               u'team_name': u'Capture the Swag'},
              {u'flag_id': u'1111682635796168874862967674479186691486',
               u'hostname': u'team100',
               u'port': 20004,
               u'team_name': u'ebp-92'},
              {u'flag_id': u'1111106727808446591956087630313937073558',
               u'hostname': u'team101',
               u'port': 20004,
               u'team_name': u'217'},
              {u'flag_id': u'1111586119314583227061354701854119449983',
               u'hostname': u'team106',
               u'port': 20004,
               u'team_name': u'Destructive  Voice'},
              {u'flag_id': u'1111963233880835554309284419170396613130',
               u'hostname': u'team107',
               u'port': 20004,
               u'team_name': u'KCSS'},
              {u'flag_id': u'1111800820907394229912111987124385160569',
               u'hostname': u'team104',
               u'port': 20004,
               u'team_name': u'Great_Octopus'},
              {u'flag_id': u'1111067312670914242077293899087886158867',
               u'hostname': u'team105',
               u'port': 20004,
               u'team_name': u'CalicemPulmenti'},
              {u'flag_id': u'1111962934778958256339410623673080105897',
               u'hostname': u'team39',
               u'port': 20004,
               u'team_name': u'AnonSai'},
              {u'flag_id': u'1111120403788544821607572937864404672529',
               u'hostname': u'team38',
               u'port': 20004,
               u'team_name': u'TPA'},
              {u'flag_id': u'1111907774685624604991555788645978989446',
               u'hostname': u'team33',
               u'port': 20004,
               u'team_name': u'salary lupin'},
              {u'flag_id': u'1111899426703139259534448588906354265620',
               u'hostname': u'team32',
               u'port': 20004,
               u'team_name': u'Qmet'},
              {u'flag_id': u'1111560702086847278764868139841617400519',
               u'hostname': u'team31',
               u'port': 20004,
               u'team_name': u'hack.carleton'},
              {u'flag_id': u'1111601823220161752490778514530088789089',
               u'hostname': u'team30',
               u'port': 20004,
               u'team_name': u"The Wizard's Sanctum"},
              {u'flag_id': u'1111077457494400904531124740869299237418',
               u'hostname': u'team37',
               u'port': 20004,
               u'team_name': u'Thomas'},
              {u'flag_id': u'1111673391097677907969581703281938237551',
               u'hostname': u'team36',
               u'port': 20004,
               u'team_name': u'p1x3l4t0r'},
              {u'flag_id': u'1111975354884694326135014339170615300472',
               u'hostname': u'team35',
               u'port': 20004,
               u'team_name': u'Halt.and.Catch.Meggings'},
              {u'flag_id': u'1111414591520157352998491186045810981834',
               u'hostname': u'team34',
               u'port': 20004,
               u'team_name': u'0xil'},
              {u'flag_id': u'1111709701148939633752018634490617951571',
               u'hostname': u'team246',
               u'port': 20004,
               u'team_name': u'asdfasdf'},
              {u'flag_id': u'1111850009640137134682091664048429849328',
               u'hostname': u'team310',
               u'port': 20004,
               u'team_name': u'sinners_from_hell'},
              {u'flag_id': u'1111629214792009634964725174855881327761',
               u'hostname': u'team282',
               u'port': 20004,
               u'team_name': u'cokomel'},
              {u'flag_id': u'1111023411184863838245171128823946676789',
               u'hostname': u'team252',
               u'port': 20004,
               u'team_name': u'ctf101'},
              {u'flag_id': u'1111175456966780407944709842885713420329',
               u'hostname': u'team205',
               u'port': 20004,
               u'team_name': u'Samurai'},
              {u'flag_id': u'1111094807526236052268424822606014323225',
               u'hostname': u'team223',
               u'port': 20004,
               u'team_name': u'deptraivcl'},
              {u'flag_id': u'1111756435481029585480492956555380471109',
               u'hostname': u'team176',
               u'port': 20004,
               u'team_name': u'ISITDTU'},
              {u'flag_id': u'1111768188630799140532260473591868973170',
               u'hostname': u'team60',
               u'port': 20004,
               u'team_name': u'Luck1F15h'},
              {u'flag_id': u'1111564514539031741543459448498213538401',
               u'hostname': u'team61',
               u'port': 20004,
               u'team_name': u'Magic Squirrel'},
              {u'flag_id': u'1111332381125656587299890225021989279338',
               u'hostname': u'team62',
               u'port': 20004,
               u'team_name': u'lazykoala2014'},
              {u'flag_id': u'1111936995034495789793244064974211578526',
               u'hostname': u'team63',
               u'port': 20004,
               u'team_name': u'hama'},
              {u'flag_id': u'1111768763244638685574579681445349342778',
               u'hostname': u'team64',
               u'port': 20004,
               u'team_name': u'Colonel 0x20'},
              {u'flag_id': u'1111691520962910607935977680620576520395',
               u'hostname': u'team65',
               u'port': 20004,
               u'team_name': u'bitsforeveryone'},
              {u'flag_id': u'1111122680782247100226888503739819780253',
               u'hostname': u'team66',
               u'port': 20004,
               u'team_name': u'Thund3r'},
              {u'flag_id': u'1111450413749827804751372378309229592642',
               u'hostname': u'team67',
               u'port': 20004,
               u'team_name': u'whitewalkers'},
              {u'flag_id': u'1111851430101404196210116265170206784529',
               u'hostname': u'team68',
               u'port': 20004,
               u'team_name': u'Synergy'},
              {u'flag_id': u'1111708935455999615539146866785581773084',
               u'hostname': u'team69',
               u'port': 20004,
               u'team_name': u'Team-Nill'},
              {u'flag_id': u'1111287927495727939716972861661282760916',
               u'hostname': u'team175',
               u'port': 20004,
               u'team_name': u'israelites'},
              {u'flag_id': u'1111355964879715293863091010371295148835',
               u'hostname': u'team174',
               u'port': 20004,
               u'team_name': u'MBAFNT-ROUEN'},
              {u'flag_id': u'1111711244766014175091620730153054158022',
               u'hostname': u'team173',
               u'port': 20004,
               u'team_name': u'AAA!'},
              {u'flag_id': u'1111456513941965187790042242483087501641',
               u'hostname': u'team172',
               u'port': 20004,
               u'team_name': u'adw1n'},
              {u'flag_id': u'1111306116409338007281644430737402862255',
               u'hostname': u'team171',
               u'port': 20004,
               u'team_name': u'Ulm Security Sparrows'},
              {u'flag_id': u'1111169786600521441482137290896222465133',
               u'hostname': u'team170',
               u'port': 20004,
               u'team_name': u'The Northern Coalition'},
              {u'flag_id': u'1111454649944622519939282975768556904702',
               u'hostname': u'team203',
               u'port': 20004,
               u'team_name': u'Bushwhackers'},
              {u'flag_id': u'1111123550244465578039126970153487792522',
               u'hostname': u'team222',
               u'port': 20004,
               u'team_name': u'R0h1iCk'},
              {u'flag_id': u'1111632544176898491343523877316668514388',
               u'hostname': u'team181',
               u'port': 20004,
               u'team_name': u'MasonCC'},
              {u'flag_id': u'1111748663640402095980098222650478093872',
               u'hostname': u'team253',
               u'port': 20004,
               u'team_name': u'0xBU'},
              {u'flag_id': u'1111794437657410771071995512710996217230',
               u'hostname': u'team248',
               u'port': 20004,
               u'team_name': u'2600 Club'},
              {u'flag_id': u'1111969578878085097914917604087283337278',
               u'hostname': u'team182',
               u'port': 20004,
               u'team_name': u'Life'},
              {u'flag_id': u'1111993051795464665076965078716471303109',
               u'hostname': u'team183',
               u'port': 20004,
               u'team_name': u'Kernel Sanders'},
              {u'flag_id': u'1111866984793536959009522966031467083116',
               u'hostname': u'team180',
               u'port': 20004,
               u'team_name': u'NeverCTF'},
              {u'flag_id': u'1111837627706859461728665173313022927205',
               u'hostname': u'team2',
               u'port': 20004,
               u'team_name': u'GopherInTheaShell'},
              {u'flag_id': u'1111800588386866033983893807625023543416',
               u'hostname': u'team162',
               u'port': 20004,
               u'team_name': u's1u3'},
              {u'flag_id': u'1111819980861283804327599206274516998724',
               u'hostname': u'team187',
               u'port': 20004,
               u'team_name': u'xine'},
              {u'flag_id': u'1111377214232312634209340741676654740504',
               u'hostname': u'team184',
               u'port': 20004,
               u'team_name': u'XORcists'},
              {u'flag_id': u'1111972936277348936974162448411289014459',
               u'hostname': u'team6',
               u'port': 20004,
               u'team_name': u'WizardsOfDos'},
              {u'flag_id': u'1111668933404564060642902311748550007563',
               u'hostname': u'team220',
               u'port': 20004,
               u'team_name': u'IDKIDC'},
              {u'flag_id': u'1111489228833201502007148147387104070801',
               u'hostname': u'team186',
               u'port': 20004,
               u'team_name': u'UFOlogists'},
              {u'flag_id': u'1111447783738233795342030381502615121990',
               u'hostname': u'team188',
               u'port': 20004,
               u'team_name': u'Hubert Hackin'},
              {u'flag_id': u'1111004890559704295318598978852123697910',
               u'hostname': u'team189',
               u'port': 20004,
               u'team_name': u'SDSU'},
              {u'flag_id': u'1111284183433327882905532782341494577391',
               u'hostname': u'team311',
               u'port': 20004,
               u'team_name': u'bi0s'},
              {u'flag_id': u'1111663436869271812982206074593870945854',
               u'hostname': u'team202',
               u'port': 20004,
               u'team_name': u'RU+=free(pizza);'},
              {u'flag_id': u'1111946109014592359887788726008254560793',
               u'hostname': u'team313',
               u'port': 20004,
               u'team_name': u'HackingFromSpace'},
              {u'flag_id': u'1111075204745508646291856561866712898911',
               u'hostname': u'team196',
               u'port': 20004,
               u'team_name': u'llllllll'},
              {u'flag_id': u'1111685742923318842656226415617955737471',
               u'hostname': u'team221',
               u'port': 20004,
               u'team_name': u'hyperion'},
              {u'flag_id': u'1111906626733478002161103807749109971078',
               u'hostname': u'team317',
               u'port': 20004,
               u'team_name': u'undefined'},
              {u'flag_id': u'1111059557127491739737824954822096329782',
               u'hostname': u'team185',
               u'port': 20004,
               u'team_name': u'morganFr33man'},
              {u'flag_id': u'1111521842150084072668971367676349270536',
               u'hostname': u'team315',
               u'port': 20004,
               u'team_name': u'flagish'},
              {u'flag_id': u'1111490960891039386320221493105652571697',
               u'hostname': u'team316',
               u'port': 20004,
               u'team_name': u'Squareroots'},
              {u'flag_id': u'1111663619356549575726100056320179987875',
               u'hostname': u'team99',
               u'port': 20004,
               u'team_name': u'Tokyo Westerns'},
              {u'flag_id': u'1111768483494189680722245637448974943542',
               u'hostname': u'team98',
               u'port': 20004,
               u'team_name': u'SIGFLAG'},
              {u'flag_id': u'1111539194410515010043542065529648480336',
               u'hostname': u'team168',
               u'port': 20004,
               u'team_name': u'L'},
              {u'flag_id': u'1111961284645310309844793444140675786149',
               u'hostname': u'team169',
               u'port': 20004,
               u'team_name': u'W1ld0n3'},
              {u'flag_id': u'1111530808527142252051484341249958796699',
               u'hostname': u'team229',
               u'port': 20004,
               u'team_name': u'DFM'},
              {u'flag_id': u'1111283194728469845457954581540181349394',
               u'hostname': u'team228',
               u'port': 20004,
               u'team_name': u'FAUST'},
              {u'flag_id': u'1111536642126664966515017723511418112729',
               u'hostname': u'team91',
               u'port': 20004,
               u'team_name': u'AllTheFlags'},
              {u'flag_id': u'1111660267293634527489220933943047120171',
               u'hostname': u'team90',
               u'port': 20004,
               u'team_name': u'UCL-THOR'},
              {u'flag_id': u'1111466686350064889832064690636817537566',
               u'hostname': u'team93',
               u'port': 20004,
               u'team_name': u'item_not_found'},
              {u'flag_id': u'1111066902450558147912951221167905832004',
               u'hostname': u'team92',
               u'port': 20004,
               u'team_name': u'larryboy825'},
              {u'flag_id': u'1111753956823818604304840486082128921359',
               u'hostname': u'team95',
               u'port': 20004,
               u'team_name': u'OneManMenace'},
              {u'flag_id': u'1111408941945698557055310988035769289918',
               u'hostname': u'team94',
               u'port': 20004,
               u'team_name': u'Tuskegee'},
              {u'flag_id': u'1111098141888060216911403629208003711793',
               u'hostname': u'team97',
               u'port': 20004,
               u'team_name': u'farmingsimulator2015'},
              {u'flag_id': u'1111194804469046080374391316841032424345',
               u'hostname': u'team96',
               u'port': 20004,
               u'team_name': u'iwanttoseechallenges'},
              {u'flag_id': u'1111967405702524102126716055382149015163',
               u'hostname': u'team11',
               u'port': 20004,
               u'team_name': u'test_team'},
              {u'flag_id': u'1111759960778821443882671316796720316281',
               u'hostname': u'team10',
               u'port': 20004,
               u'team_name': u'Fourchette Bombe'},
              {u'flag_id': u'1111314814880219478389033844432076253277',
               u'hostname': u'team13',
               u'port': 20004,
               u'team_name': u'teetime'},
              {u'flag_id': u'1111306362006339633955778922201476220675',
               u'hostname': u'team12',
               u'port': 20004,
               u'team_name': u'NOPs'},
              {u'flag_id': u'1111234920099298546715789702275967988788',
               u'hostname': u'team15',
               u'port': 20004,
               u'team_name': u'FinishGreat'},
              {u'flag_id': u'1111957202914596400309531831401163019252',
               u'hostname': u'team14',
               u'port': 20004,
               u'team_name': u'JHTC'},
              {u'flag_id': u'1111739898848561647110687904199546141913',
               u'hostname': u'team17',
               u'port': 20004,
               u'team_name': u'sqrt0'},
              {u'flag_id': u'1111725595368918778307769108960911240493',
               u'hostname': u'team16',
               u'port': 20004,
               u'team_name': u'FilipeOliveira'},
              {u'flag_id': u'1111440652742117554573705433518886816055',
               u'hostname': u'team19',
               u'port': 20004,
               u'team_name': u'Test Icicles'},
              {u'flag_id': u'1111060485751747703049436757309569646371',
               u'hostname': u'team18',
               u'port': 20004,
               u'team_name': u'JDI'},
              {u'flag_id': u'1111346061640552557200068732694494417708',
               u'hostname': u'team314',
               u'port': 20004,
               u'team_name': u'RunCMD'},
              {u'flag_id': u'1111067340156782398349855882846972704137',
               u'hostname': u'team117',
               u'port': 20004,
               u'team_name': u'iVBORw0KGgo='},
              {u'flag_id': u'1111477584298616843728265363139664156139',
               u'hostname': u'team250',
               u'port': 20004,
               u'team_name': u'EpicTeam'},
              {u'flag_id': u'1111804313089595082149563928351388021885',
               u'hostname': u'team116',
               u'port': 20004,
               u'team_name': u'fuffateam'},
              {u'flag_id': u'1111803364047721026068774812254138320141',
               u'hostname': u'team274',
               u'port': 20004,
               u'team_name': u'LC/BC'},
              {u'flag_id': u'1111047668745827697829957766787512550611',
               u'hostname': u'team204',
               u'port': 20004,
               u'team_name': u'h4rdf0rc3'},
              {u'flag_id': u'1111451214770988668087726012469445281475',
               u'hostname': u'team275',
               u'port': 20004,
               u'team_name': u'cyberhawks'},
              {u'flag_id': u'1111619732703974379439534644669441763071',
               u'hostname': u'team151',
               u'port': 20004,
               u'team_name': u'ppp'},
              {u'flag_id': u'1111963940277630165657659266389726071418',
               u'hostname': u'team150',
               u'port': 20004,
               u'team_name': u'VoidHack'},
              {u'flag_id': u'1111575736521541101152503890686514745863',
               u'hostname': u'team153',
               u'port': 20004,
               u'team_name': u'xSTF'},
              {u'flag_id': u'1111512976042005549269233682431200797589',
               u'hostname': u'team152',
               u'port': 20004,
               u'team_name': u'TempCode'},
              {u'flag_id': u'1111368382399501300743524006582910924013',
               u'hostname': u'team155',
               u'port': 20004,
               u'team_name': u'Scrypter'},
              {u'flag_id': u'1111524475955069859785671610765671391256',
               u'hostname': u'team154',
               u'port': 20004,
               u'team_name': u'sh4dowrooters'},
              {u'flag_id': u'1111887442879341649643697753468286750226',
               u'hostname': u'team157',
               u'port': 20004,
               u'team_name': u'notthelooser'},
              {u'flag_id': u'1111094836906841646487523139768305507432',
               u'hostname': u'team156',
               u'port': 20004,
               u'team_name': u'alt-secure'},
              {u'flag_id': u'1111977382245143326099278063713434432397',
               u'hostname': u'team159',
               u'port': 20004,
               u'team_name': u'clouded leopard'},
              {u'flag_id': u'1111599337636090147782052911667592460988',
               u'hostname': u'team158',
               u'port': 20004,
               u'team_name': u'Lights Out'},
              {u'flag_id': u'1111630957780040237413718988859781882182',
               u'hostname': u'team277',
               u'port': 20004,
               u'team_name': u'CInsects'},
              {u'flag_id': u'1111287854746051282610351469843686636208',
               u'hostname': u'team234',
               u'port': 20004,
               u'team_name': u'Class 461'},
              {u'flag_id': u'1111578755236099711546680330522577543690',
               u'hostname': u'team238',
               u'port': 20004,
               u'team_name': u'b01lers'},
              {u'flag_id': u'1111390468511248376190526258190588760254',
               u'hostname': u'team239',
               u'port': 20004,
               u'team_name': u'FCCcyber'},
              {u'flag_id': u'1111960295794532959433761422870403323665',
               u'hostname': u'team279',
               u'port': 20004,
               u'team_name': u'YETI'},
              {u'flag_id': u'1111785890022677584727791285445350579103',
               u'hostname': u'team207',
               u'port': 20004,
               u'team_name': u'KS.IS'},
              {u'flag_id': u'1111169769059784313638828436261776886153',
               u'hostname': u'team235',
               u'port': 20004,
               u'team_name': u'Securimag'},
              {u'flag_id': u'1111773043574786856807089544697181879580',
               u'hostname': u'team236',
               u'port': 20004,
               u'team_name': u'0daysober'},
              {u'flag_id': u'1111440893262110541588886641050467096672',
               u'hostname': u'team237',
               u'port': 20004,
               u'team_name': u'r00timentary'},
              {u'flag_id': u'1111936182969168910978408873681238689448',
               u'hostname': u'team230',
               u'port': 20004,
               u'team_name': u'acdwas'},
              {u'flag_id': u'1111899370254937526713677169319129008750',
               u'hostname': u'team231',
               u'port': 20004,
               u'team_name': u'ENOFLAG'},
              {u'flag_id': u'1111467002152681057306818114261068025074',
               u'hostname': u'team232',
               u'port': 20004,
               u'team_name': u'MV9rwGOf08'},
              {u'flag_id': u'1111601955049646943395783789717483156579',
               u'hostname': u'team233',
               u'port': 20004,
               u'team_name': u'Groupthink'},
              {u'flag_id': u'1111614814598698462427647483075481243995',
               u'hostname': u'team224',
               u'port': 20004,
               u'team_name': u'Nordlicht'},
              {u'flag_id': u'1111515326796462315582311015380346113062',
               u'hostname': u'team280',
               u'port': 20004,
               u'team_name': u'Veneno'},
              {u'flag_id': u'1111642732369573694934145634453956473575',
               u'hostname': u'team48',
               u'port': 20004,
               u'team_name': u'Savage Submarine'},
              {u'flag_id': u'1111992911770345563311022747252336691385',
               u'hostname': u'team49',
               u'port': 20004,
               u'team_name': u'Anomali'},
              {u'flag_id': u'1111726951749967559772206797690878704637',
               u'hostname': u'team46',
               u'port': 20004,
               u'team_name': u"Batman's Kitchen"},
              {u'flag_id': u'1111369051578698101304592459796225870998',
               u'hostname': u'team47',
               u'port': 20004,
               u'team_name': u'MSU-CTF'},
              {u'flag_id': u'1111738874643169757219652110486287841849',
               u'hostname': u'team44',
               u'port': 20004,
               u'team_name': u'PiggyBird'},
              {u'flag_id': u'1111590203845810390786856128280739494089',
               u'hostname': u'team45',
               u'port': 20004,
               u'team_name': u'CodiSec'},
              {u'flag_id': u'1111475212606328330802653667231161809949',
               u'hostname': u'team42',
               u'port': 20004,
               u'team_name': u'!SpamAndHex'},
              {u'flag_id': u'1111038587736970884102983890277734607434',
               u'hostname': u'team43',
               u'port': 20004,
               u'team_name': u'Diozen'},
              {u'flag_id': u'1111981119856665212243177697579912516539',
               u'hostname': u'team40',
               u'port': 20004,
               u'team_name': u'saarsec'},
              {u'flag_id': u'1111869654602297940676180615686077841189',
               u'hostname': u'team41',
               u'port': 20004,
               u'team_name': u'Shellphish'},
              {u'flag_id': u'1111937567994852219467616602628481513068',
               u'hostname': u'team1',
               u'port': 20004,
               u'team_name': u'SajanKiBaraat'},
              {u'flag_id': u'1111204467519840301475512659690202021890',
               u'hostname': u'team5',
               u'port': 20004,
               u'team_name': u'Naveen'},
              {u'flag_id': u'1111173320539314313447110304144315190766',
               u'hostname': u'team9',
               u'port': 20004,
               u'team_name': u'Ghost'},
              {u'flag_id': u'1111528640812610081878548550001615849251',
               u'hostname': u'team272',
               u'port': 20004,
               u'team_name': u'BalalaikaCr3w'},
              {u'flag_id': u'1111573185268923327870456851816054082666',
               u'hostname': u'team146',
               u'port': 20004,
               u'team_name': u'ssccsscc'},
              {u'flag_id': u'1111891488251085860649921257409873253882',
               u'hostname': u'team147',
               u'port': 20004,
               u'team_name': u'SSU'},
              {u'flag_id': u'1111852142435080386024396796358320078001',
               u'hostname': u'team144',
               u'port': 20004,
               u'team_name': u"Trump's Cyber Warriors"},
              {u'flag_id': u'1111395427697061323940359951577768803054',
               u'hostname': u'team145',
               u'port': 20004,
               u'team_name': u'LeaveCat'},
              {u'flag_id': u'1111184861191784127586772165173722240957',
               u'hostname': u'team142',
               u'port': 20004,
               u'team_name': u'H3x Pr0ph3ts'},
              {u'flag_id': u'1111924116579248705198651722576875882037',
               u'hostname': u'team143',
               u'port': 20004,
               u'team_name': u'SYPER'},
              {u'flag_id': u'1111994052656675936182701893400329936762',
               u'hostname': u'team140',
               u'port': 20004,
               u'team_name': u'ANeSeC'},
              {u'flag_id': u'1111870276031175033216469595737600175881',
               u'hostname': u'team141',
               u'port': 20004,
               u'team_name': u'LosFuzzys'},
              {u'flag_id': u'1111909294694928644068947028331507266663',
               u'hostname': u'team209',
               u'port': 20004,
               u'team_name': u'Delusions of Grandeur'},
              {u'flag_id': u'1111839641401964054300219264961775110054',
               u'hostname': u'team208',
               u'port': 20004,
               u'team_name': u'Red Team 5'},
              {u'flag_id': u'1111629561342064085875942652216086838725',
               u'hostname': u'team148',
               u'port': 20004,
               u'team_name': u'Qexfixka'},
              {u'flag_id': u'1111956603070653970976533807815916280939',
               u'hostname': u'team149',
               u'port': 20004,
               u'team_name': u'Burlingpwn'},
              {u'flag_id': u'1111657148409731190752717628139947729973',
               u'hostname': u'team77',
               u'port': 20004,
               u'team_name': u'Honeypot'},
              {u'flag_id': u'1111770236406552405415919427956316425916',
               u'hostname': u'team76',
               u'port': 20004,
               u'team_name': u'FluxFingers'},
              {u'flag_id': u'1111875115036845026629969354666377777281',
               u'hostname': u'team75',
               u'port': 20004,
               u'team_name': u'H4x0rPsch0rr'},
              {u'flag_id': u'1111593810324314643069963175558153879781',
               u'hostname': u'team74',
               u'port': 20004,
               u'team_name': u'pwndevils'},
              {u'flag_id': u'1111212832486214001615668689290349955746',
               u'hostname': u'team73',
               u'port': 20004,
               u'team_name': u'_FoXXeS_'},
              {u'flag_id': u'1111858307130651296546375263876020080982',
               u'hostname': u'team72',
               u'port': 20004,
               u'team_name': u'OldLamers'},
              {u'flag_id': u'1111708315788810023580494271739540319633',
               u'hostname': u'team71',
               u'port': 20004,
               u'team_name': u'PLUS'},
              {u'flag_id': u'1111730142654733454931203716221933767679',
               u'hostname': u'team70',
               u'port': 20004,
               u'team_name': u'in23canation'},
              {u'flag_id': u'1111815884295223552540415535810074731903',
               u'hostname': u'team278',
               u'port': 20004,
               u'team_name': u'ok'},
              {u'flag_id': u'1111913740027150001117944901923515912001',
               u'hostname': u'team79',
               u'port': 20004,
               u'team_name': u'HackPack'},
              {u'flag_id': u'1111980032146971788118007469532626431626',
               u'hostname': u'team78',
               u'port': 20004,
               u'team_name': u'grrr83'},
              {u'flag_id': u'1111787691051864755574166178960325677537',
               u'hostname': u'team263',
               u'port': 20004,
               u'team_name': u'Hacktecs'},
              {u'flag_id': u'1111633896697705230947365429756579614669',
               u'hostname': u'team249',
               u'port': 20004,
               u'team_name': u'dcua'},
              {u'flag_id': u'1111423321455491484302513486208914839461',
               u'hostname': u'team262',
               u'port': 20004,
               u'team_name': u'2Dend'},
              {u'flag_id': u'1111966662150735355572711769145639154193',
               u'hostname': u'team227',
               u'port': 20004,
               u'team_name': u'pandamania'},
              {u'flag_id': u'1111716678909411369781155570462941790850',
               u'hostname': u'team261',
               u'port': 20004,
               u'team_name': u'devcraft'},
              {u'flag_id': u'1111270090634922193965177622884174627512',
               u'hostname': u'team270',
               u'port': 20004,
               u'team_name': u'Augusta University'},
              {u'flag_id': u'1111506464255366245973502171368197737152',
               u'hostname': u'team260',
               u'port': 20004,
               u'team_name': u'XSS(Cross Site Security)'},
              {u'flag_id': u'1111719104637888314292077598058089641566',
               u'hostname': u'team276',
               u'port': 20004,
               u'team_name': u'Inn0vHackti0n'},
              {u'flag_id': u'1111855920471650246721958716050315200223',
               u'hostname': u'team267',
               u'port': 20004,
               u'team_name': u'theHardER'},
              {u'flag_id': u'1111788673804904315273624787289561863761',
               u'hostname': u'team266',
               u'port': 20004,
               u'team_name': u'Mystery Team'}]}
